%YAML 1.1
%TAG !u! tag:unity3d.com,2011:
--- !u!114 &11400000
MonoBehaviour:
  m_ObjectHideFlags: 0
  m_CorrespondingSourceObject: {fileID: 0}
  m_PrefabInstance: {fileID: 0}
  m_PrefabAsset: {fileID: 0}
  m_GameObject: {fileID: 0}
  m_Enabled: 1
  m_EditorHideFlags: 0
  m_Script: {fileID: 11500000, guid: 2e4e7be864c4e484db3ee408e1b97ffc, type: 3}
  m_Name: FirstWave
  m_EditorClassIdentifier: 
  EnemiesPerWave:
  - Enemy: {fileID: 7167467457792874903, guid: 5e8b5fa03f6a7604fab2882dbf63bb6a, type: 3}
    Probability: 100
  - Enemy: {fileID: 3765285381386735172, guid: 3ce3704530fc51843adbd128941d8662, type: 3}
    Probability: 15
  - Enemy: {fileID: 1901385536909416988, guid: 4ddfb374c6e0f2a4e8be979f2a1b82f1, type: 3}
    Probability: 10
  DifficultyMultiplier: 1
  EnemiesAmount: 30
